week	p	n	o	total	p	n	o	FG	TG	TN	TX	SQ	DR	RH
2013-1-1	31	32	13	76	58,22857142857143	67,41176470588235	42,794117647058826	87,41176470588235	19,0	70,46875	74,03125	
2013-1-10	29	45	12	86	39,77142857142857	47,44117647058823	11,970588235294118	74,11764705882354	23,1875	19,15625	16,6875	
2013-1-11	40	75	20	135	23,885714285714286	8,676470588235293	0,4117647058823529	34,470588235294116	28,9375	5,5	3,15625	
2013-1-12	41	77	24	142	38,34285714285714	2,235294117647059	0,17647058823529413	20,147058823529413	47,4375	3,8125	0,84375	
2013-1-13	55	70	26	151	41,6	0,0	0,0	4,647058823529412	48,0625	0,59375	0,3125	
2013-1-14	72	206	62	340	31,485714285714284	0,0	0,0	0,17647058823529413	29,0	13,375	12,6875	
2013-1-15	241	317	203	761	42,628571428571426	0,0	0,0	0,8235294117647058	10,3125	55,53125	24,84375	
2013-1-16	99	132	50	281	22,34285714285714	0,0	0,0	1,411764705882353	42,96875	1,9375	0,5	
2013-1-17	44	104	29	177	19,228571428571428	0,0	0,0	0,35294117647058826	18,96875	0,0	0,0	
2013-1-18	46	71	34	151	50,457142857142856	0,0	0,0	0,4411764705882353	18,25	1,75	0,40625	
2013-1-19	40	102	41	183	73,57142857142857	0,0	0,0	0,0	12,375	0,0	0,0	
2013-1-2	12	23	6	41	53,82857142857143	64,05882352941177	40,44117647058823	80,44117647058823	34,90625	12,34375	5,4375	
2013-1-20	96	163	106	365	81,28571428571429	0,0	0,0	0,23529411764705882	3,375	44,65625	20,625	
2013-1-21	112	184	91	387	53,8	0,14705882352941177	0,0	2,323529411764706	0,25	65,65625	20,1875	
2013-1-22	36	94	29	159	35,94285714285714	0,0	0,0	0,6176470588235294	29,40625	1,21875	0,21875	
2013-1-23	41	53	22	116	34,628571428571426	0,0	0,0	0,0	21,875	0,0	0,0	
2013-1-24	27	55	23	105	26,142857142857142	0,0	0,0	0,35294117647058826	33,875	0,0	0,0	
2013-1-25	32	57	29	118	31,857142857142858	0,0	0,0	0,14705882352941177	26,78125	0,0	0,0	
2013-1-26	69	95	43	207	61,8	0,029411764705882353	0,0	17,264705882352942	9,34375	20,5	8,875	
2013-1-27	62	70	42	174	75,91428571428571	34,38235294117647	14,0	58,26470588235294	11,875	70,0625	59,0	
2013-1-28	56	66	36	158	71,71428571428571	45,35294117647059	19,941176470588236	74,79411764705883	48,09375	27,53125	29,90625	
2013-1-29	38	78	24	140	88,48571428571428	95,70588235294117	68,94117647058823	119,67647058823529	3,59375	76,09375	67,25	
2013-1-3	21	18	6	45	59,885714285714286	94,11764705882354	73,61764705882354	108,20588235294117	13,5	20,875	8,375	
2013-1-30	61	122	38	221	102,94285714285714	94,79411764705883	68,1470588235294	122,02941176470588	27,125	54,875	77,8125	
2013-1-31	23	52	24	99	98,91428571428571	71,26470588235294	58,35294117647059	91,61764705882354	25,5	14,5	26,9375	
2013-1-4	7	25	10	42	54,628571428571426	88,70588235294117	79,61764705882354	96,79411764705883	0,46875	20,65625	4,0625	
2013-1-5	20	16	6	42	35,142857142857146	77,91176470588235	69,91176470588235	85,5	0,0	13,59375	2,3125	
2013-1-6	31	13	8	52	38,48571428571429	79,3529411764706	61,85294117647059	94,3529411764706	21,5	0,5625	0,09375	
2013-1-7	14	24	6	44	40,142857142857146	72,32352941176471	61,294117647058826	82,55882352941177	0,0	12,875	2,0625	
2013-1-8	15	33	17	65	51,51428571428571	73,29411764705883	61,26470588235294	84,20588235294117	0,78125	13,25	3,53125	
2013-1-9	30	65	21	116	44,65714285714286	63,55882352941177	39,088235294117645	76,94117647058823	1,15625	90,34375	60,25	
2013-10-1	20	32	6	58	52,371428571428574	104,44117647058823	54,970588235294116	160,64705882352942	102,3125	0,0	0,0	
2013-10-10	31	32	8	71	34,885714285714286	88,6470588235294	56,14705882352941	128,26470588235293	48,03125	36,625	61,6875	
2013-10-11	36	76	22	134	47,628571428571426	92,79411764705883	62,85294117647059	108,6470588235294	0,875	117,59375	153,8125	
2013-10-12	33	38	24	95	28,428571428571427	89,02941176470588	54,5	118,5	25,9375	43,46875	85,375	
2013-10-13	63	84	55	202	75,11428571428571	87,23529411764706	75,47058823529412	102,82352941176471	2,875	129,34375	233,8125	
2013-10-14	17	52	8	77	46,17142857142857	103,6470588235294	87,91176470588235	119,17647058823529	3,28125	40,625	31,84375	
2013-10-15	25	49	14	88	35,25714285714286	96,58823529411765	56,88235294117647	122,61764705882354	12,75	37,0625	59,90625	
2013-10-16	15	26	8	49	34,285714285714285	106,32352941176471	59,411764705882355	136,47058823529412	20,03125	21,1875	10,25	
2013-10-17	18	19	6	43	69,05714285714286	125,05882352941177	85,5	155,64705882352942	46,0625	4,8125	7,53125	
2013-10-18	16	14	8	38	29,857142857142858	111,55882352941177	75,67647058823529	141,1764705882353	23,5	0,25	0,15625	
2013-10-19	18	12	14	44	45,05714285714286	128,76470588235293	90,17647058823529	160,11764705882354	23,0	22,78125	52,84375	
2013-10-2	8	32	3	43	60,57142857142857	106,05882352941177	58,8235294117647	158,41176470588235	84,0625	0,0	0,0	
2013-10-20	19	4	9	32	52,542857142857144	146,8235294117647	122,97058823529412	178,3235294117647	22,96875	6,1875	14,46875	
2013-10-21	12	10	7	29	55,48571428571429	147,97058823529412	123,41176470588235	174,02941176470588	15,6875	1,0	0,375	
2013-10-22	53	25	15	93	54,25714285714286	170,26470588235293	134,14705882352942	214,58823529411765	66,40625	13,59375	61,40625	
2013-10-23	22	17	18	57	72,57142857142857	155,2058823529412	121,08823529411765	185,47058823529412	35,59375	3,59375	8,15625	
2013-10-24	33	16	12	61	33,6	114,20588235294117	69,58823529411765	159,2941176470588	80,90625	0,0	0,0	
2013-10-25	17	10	10	37	50,08571428571429	143,58823529411765	98,3529411764706	175,88235294117646	2,15625	15,625	8,3125	
2013-10-26	24	11	12	47	64,22857142857143	158,7058823529412	139,7058823529412	187,2058823529412	48,875	0,0	0,0	
2013-10-27	64	65	64	193	99,6	142,88235294117646	123,70588235294117	156,5	34,8125	35,96875	56,03125	
2013-10-28	171	228	203	602	113,6	134,8235294117647	102,6470588235294	169,02941176470588	31,28125	60,9375	105,4375	
2013-10-29	35	40	24	99	75,71428571428571	102,52941176470588	76,44117647058823	133,05882352941177	45,53125	26,46875	48,625	
2013-10-3	13	28	13	54	58,82857142857143	121,73529411764706	68,6470588235294	170,2058823529412	83,59375	4,34375	7,125	
2013-10-30	18	14	6	38	53,02857142857143	93,17647058823529	68,08823529411765	130,38235294117646	76,125	0,6875	0,65625	
2013-10-31	8	18	9	35	68,31428571428572	103,44117647058823	72,8529411764706	129,5	26,65625	12,09375	10,09375	
2013-10-4	35	40	20	95	49,457142857142856	155,41176470588235	112,17647058823529	205,2058823529412	36,25	22,125	57,5625	
2013-10-5	19	11	5	35	26,114285714285714	144,76470588235293	98,67647058823529	185,6764705882353	27,0625	0,96875	0,5625	
2013-10-6	24	10	8	42	16,65714285714286	125,6470588235294	78,32352941176471	175,3235294117647	43,625	0,0	0,0	
2013-10-7	23	17	7	47	19,057142857142857	120,79411764705883	63,794117647058826	181,38235294117646	68,09375	0,0	0,0	
2013-10-8	8	15	12	35	29,485714285714284	143,55882352941177	94,29411764705883	181,0	18,21875	0,84375	0,40625	
2013-10-9	9	26	7	42	49,02857142857143	131,38235294117646	80,23529411764706	157,8235294117647	12,21875	19,53125	28,0	
2013-11-1	13	16	10	39	58,77142857142857	110,61764705882354	94,0	128,52941176470588	6,15625	30,34375	30,15625	
2013-11-10	23	15	13	51	42,457142857142856	64,41176470588235	29,08823529411765	96,58823529411765	41,4375	30,40625	46,71875	
2013-11-11	18	34	8	60	47,4	65,38235294117646	15,705882352941176	97,88235294117646	38,375	4,09375	2,125	
2013-11-12	21	21	12	54	47,74285714285714	75,11764705882354	50,1764705882353	92,6470588235294	1,4375	64,59375	29,875	
2013-11-13	22	7	6	35	28,914285714285715	63,294117647058826	25,441176470588236	111,73529411764706	67,71875	0,0	0,0	
2013-11-14	16	22	10	48	49,8	69,38235294117646	48,35294117647059	87,6470588235294	4,34375	41,65625	51,125	
2013-11-15	17	12	13	42	25,314285714285713	63,794117647058826	18,323529411764707	108,58823529411765	46,75	0,71875	0,46875	
2013-11-16	17	22	12	51	27,914285714285715	52,029411764705884	23,647058823529413	70,73529411764706	11,3125	0,40625	0,0625	
2013-11-17	12	9	5	26	17,514285714285716	68,26470588235294	54,1764705882353	83,23529411764706	1,40625	3,78125	0,9375	
2013-11-18	9	21	7	37	35,22857142857143	57,088235294117645	44,14705882352941	70,55882352941177	3,46875	12,25	4,59375	
2013-11-19	20	28	8	56	38,857142857142854	57,88235294117647	20,441176470588236	83,79411764705883	6,9375	47,0	32,71875	
2013-11-2	19	16	11	46	45,57142857142857	107,1470588235294	87,08823529411765	127,91176470588235	1,75	50,34375	67,875	
2013-11-20	50	78	28	156	51,371428571428574	31,08823529411765	4,470588235294118	60,55882352941177	26,625	38,34375	26,4375	
2013-11-21	17	37	17	71	45,371428571428574	27,0	6,9411764705882355	53,294117647058826	33,84375	3,125	1,21875	
2013-11-22	14	37	8	59	46,82857142857143	43,73529411764706	12,264705882352942	60,35294117647059	2,9375	9,59375	3,28125	
2013-11-23	22	27	11	60	31,857142857142858	49,3235294117647	16,529411764705884	74,70588235294117	26,84375	0,78125	0,40625	
2013-11-24	12	33	13	58	42,42857142857143	59,1764705882353	28,08823529411765	83,52941176470588	5,375	10,0625	7,21875	
2013-11-25	22	28	5	55	37,457142857142856	48,029411764705884	21,794117647058822	77,55882352941177	20,09375	12,0625	10,28125	
2013-11-26	13	24	8	45	22,742857142857144	52,529411764705884	25,441176470588236	75,58823529411765	8,9375	9,59375	5,09375	
2013-11-27	15	24	8	47	34,628571428571426	65,41176470588235	34,94117647058823	85,29411764705883	3,3125	15,25	3,03125	
2013-11-28	8	12	10	30	31,4	81,76470588235294	64,3529411764706	99,0	5,78125	9,15625	2,375	
2013-11-29	17	38	9	64	66,48571428571428	69,23529411764706	44,1764705882353	88,47058823529412	0,4375	37,65625	45,4375	
2013-11-3	47	41	29	117	87,54285714285714	93,82352941176471	70,38235294117646	114,6470588235294	43,8125	23,1875	43,03125	
2013-11-30	16	18	11	45	39,885714285714286	64,3529411764706	36,0	92,52941176470588	22,8125	13,375	12,53125	
2013-11-4	27	37	19	83	62,114285714285714	85,79411764705883	62,73529411764706	117,88235294117646	11,625	105,9375	199,125	
2013-11-5	14	25	14	53	63,74285714285714	74,23529411764706	48,26470588235294	98,17647058823529	10,6875	67,34375	69,875	
2013-11-6	17	19	10	46	60,0	102,23529411764706	73,52941176470588	138,23529411764707	1,46875	58,25	52,1875	
2013-11-7	11	15	9	35	48,4	111,08823529411765	86,23529411764706	142,35294117647058	10,875	67,0625	60,4375	
2013-11-8	19	27	9	55	35,22857142857143	87,61764705882354	61,294117647058826	108,58823529411765	20,125	32,71875	71,375	
2013-11-9	35	20	9	64	67,97142857142858	82,1470588235294	50,76470588235294	105,82352941176471	48,125	57,09375	106,8125	
2013-12-1	27	24	7	58	31,6	68,32352941176471	35,529411764705884	91,88235294117646	20,3125	1,96875	1,15625	
2013-12-10	41	27	16	84	31,485714285714284	46,76470588235294	11,647058823529411	85,1470588235294	58,34375	0,0	0,0	
2013-12-11	27	38	47	112	30,085714285714285	20,764705882352942	3,1470588235294117	57,794117647058826	41,65625	0,09375	0,03125	
2013-12-12	26	40	18	84	43,05714285714286	22,735294117647058	4,794117647058823	48,76470588235294	45,09375	0,0	0,0	
2013-12-13	23	37	28	88	41,885714285714286	23,38235294117647	6,588235294117647	51,0	43,71875	1,8125	2,09375	
2013-12-14	23	26	7	56	54,48571428571429	59,029411764705884	28,11764705882353	82,05882352941177	32,34375	38,25	36,65625	
2013-12-15	13	21	18	52	75,4	78,05882352941177	61,529411764705884	91,1470588235294	10,6875	20,9375	16,46875	
2013-12-16	16	19	11	46	73,88571428571429	95,26470588235294	75,20588235294117	117,91176470588235	31,375	5,03125	4,15625	
2013-12-17	12	31	6	49	32,285714285714285	62,44117647058823	44,029411764705884	90,79411764705883	2,625	25,15625	13,71875	
2013-12-18	15	22	6	43	62,42857142857143	75,97058823529412	55,38235294117647	92,17647058823529	22,78125	3,25	2,59375	
2013-12-19	13	19	5	37	58,51428571428571	68,97058823529412	29,176470588235293	94,47058823529412	26,15625	49,8125	55,1875	
2013-12-2	17	30	13	60	19,771428571428572	45,029411764705884	4,088235294117647	86,58823529411765	50,78125	0,0	0,0	
2013-12-20	16	19	9	44	66,2	57,94117647058823	33,294117647058826	79,23529411764706	59,25	1,1875	0,875	
2013-12-21	30	41	19	90	101,22857142857143	70,02941176470588	59,6764705882353	79,91176470588235	0,375	62,34375	55,5625	
2013-12-22	28	28	25	81	86,08571428571429	78,05882352941177	59,588235294117645	98,94117647058823	4,5	20,59375	34,34375	
2013-12-23	22	30	32	84	90,51428571428572	78,79411764705883	46,23529411764706	111,70588235294117	24,9375	42,25	22,71875	
2013-12-24	48	137	75	260	108,11428571428571	96,94117647058823	72,26470588235294	116,32352941176471	0,0	103,6875	113,28125	
2013-12-25	23	27	15	65	52,142857142857146	62,588235294117645	23,470588235294116	85,6470588235294	37,53125	27,21875	38,0	
2013-12-26	12	14	10	36	35,857142857142854	48,73529411764706	21,852941176470587	70,0	9,90625	1,96875	1,28125	
2013-12-27	24	39	17	80	93,22857142857143	74,79411764705883	34,088235294117645	95,11764705882354	0,125	70,71875	55,0625	
2013-12-28	20	12	6	38	50,65714285714286	67,11764705882354	43,088235294117645	87,32352941176471	37,1875	38,625	48,09375	
2013-12-29	31	17	14	62	51,371428571428574	51,411764705882355	29,705882352941178	76,08823529411765	43,0	12,125	9,5	
2013-12-3	21	59	23	103	19,34285714285714	20,029411764705884	1,8823529411764706	52,94117647058823	40,90625	0,0	0,0	
2013-12-30	20	22	18	60	80,71428571428571	53,205882352941174	26,970588235294116	72,26470588235294	26,9375	13,03125	6,4375	
2013-12-31	25	23	27	75	64,2	67,3529411764706	51,85294117647059	85,82352941176471	26,84375	25,15625	19,5	
2013-12-4	35	50	38	123	48,2	52,411764705882355	24,441176470588236	80,6470588235294	2,4375	21,875	11,65625	
2013-12-5	163	251	269	683	104,91428571428571	48,970588235294116	14,852941176470589	84,23529411764706	0,5	32,71875	61,09375	
2013-12-6	47	104	46	197	90,42857142857143	35,26470588235294	15,588235294117647	51,55882352941177	18,15625	31,8125	30,46875	
2013-12-7	18	37	17	72	45,05714285714286	55,5	26,970588235294116	77,55882352941177	3,03125	20,75	20,625	
2013-12-8	20	18	12	50	69,14285714285714	80,11764705882354	59,088235294117645	94,44117647058823	9,375	7,125	3,65625	
2013-12-9	19	18	10	47	59,17142857142857	82,6470588235294	55,1764705882353	100,17647058823529	18,125	15,03125	8,625	
2013-2-1	22	58	7	87	46,4	49,76470588235294	23,970588235294116	71,6470588235294	0,0	81,25	61,53125	
2013-2-10	55	61	29	145	60,25714285714286	1,2941176470588236	0,0	16,41176470588235	66,15625	16,3125	8,09375	
2013-2-11	20	57	14	91	75,54285714285714	0,0	0,0	6,794117647058823	41,46875	0,875	0,125	
2013-2-12	24	38	10	72	42,91428571428571	0,029411764705882353	0,0	8,441176470588236	29,5625	0,3125	0,15625	
2013-2-13	23	31	15	69	25,742857142857144	0,3235294117647059	0,0	19,852941176470587	39,25	0,0	0,0	
2013-2-14	55	99	66	220	61,08571428571429	0,7647058823529411	0,0	14,852941176470589	1,5	55,40625	29,71875	
2013-2-15	25	27	14	66	28,514285714285716	32,14705882352941	9,176470588235293	59,970588235294116	17,25	7,21875	4,71875	
2013-2-16	11	8	10	29	17,714285714285715	40,35294117647059	17,38235294117647	65,88235294117646	5,96875	5,90625	3,96875	
2013-2-17	37	14	9	60	23,285714285714285	22,352941176470587	1,9411764705882353	54,029411764705884	37,53125	0,0	0,0	
2013-2-18	44	24	7	75	17,02857142857143	16,470588235294116	1,3529411764705883	57,76470588235294	50,0625	0,0	0,0	
2013-2-19	14	23	12	49	35,57142857142857	25,5	1,2352941176470589	52,1764705882353	4,59375	19,25	5,6875	
2013-2-2	59	53	19	131	60,714285714285715	38,294117647058826	18,970588235294116	57,8235294117647	56,46875	22,03125	21,34375	
2013-2-20	32	31	7	70	50,885714285714286	2,6470588235294117	0,029411764705882353	25,970588235294116	49,90625	0,0	0,0	
2013-2-21	31	35	11	77	50,628571428571426	0,0	0,0	14,323529411764707	37,34375	0,28125	0,0625	
2013-2-22	34	41	14	89	59,285714285714285	0,0	0,0	6,382352941176471	35,75	0,65625	0,25	
2013-2-23	35	56	18	109	64,31428571428572	0,0	0,0	6,588235294117647	9,15625	12,90625	2,96875	
2013-2-24	60	107	49	216	64,74285714285715	3,0	0,4411764705882353	10,205882352941176	0,0	93,03125	23,25	
2013-2-25	12	41	17	70	57,22857142857143	16,029411764705884	7,882352941176471	24,970588235294116	0,375	16,6875	7,9375	
2013-2-26	16	20	7	43	47,48571428571429	24,323529411764707	9,823529411764707	45,3235294117647	8,40625	0,0	0,0	
2013-2-27	18	27	6	51	43,4	10,970588235294118	2,3529411764705883	28,11764705882353	20,78125	0,0	0,0	
2013-2-28	13	21	4	38	26,62857142857143	19,0	3,1470588235294117	39,705882352941174	14,28125	0,5625	0,09375	
2013-2-3	34	26	12	72	68,65714285714286	44,44117647058823	19,147058823529413	68,20588235294117	10,40625	43,625	28,0	
2013-2-4	40	39	20	99	80,51428571428572	73,02941176470588	55,3235294117647	91,02941176470588	45,0625	41,28125	23,625	
2013-2-5	59	154	74	287	73,11428571428571	30,735294117647058	3,764705882352941	62,11764705882353	40,3125	33,40625	59,8125	
2013-2-6	93	130	81	304	45,82857142857143	22,0	2,3823529411764706	53,55882352941177	56,3125	34,53125	43,5	
2013-2-7	35	47	15	97	44,8	20,852941176470587	3,735294117647059	50,029411764705884	46,84375	26,59375	35,5625	
2013-2-8	40	44	19	103	32,65714285714286	8,323529411764707	0,14705882352941177	36,85294117647059	37,9375	12,6875	13,59375	
2013-2-9	41	68	20	129	24,17142857142857	2,264705882352941	0,0	23,88235294117647	25,4375	25,53125	13,03125	
2013-3-1	12	16	10	38	38,91428571428571	31,676470588235293	17,235294117647058	46,5	0,46875	5,34375	1,125	
2013-3-10	35	69	29	133	70,74285714285715	3,2058823529411766	0,0	17,941176470588236	0,21875	40,5625	17,09375	
2013-3-11	34	130	29	193	80,91428571428571	0,0	0,0	0,08823529411764706	14,9375	18,65625	6,65625	
2013-3-12	60	127	44	231	62,371428571428574	0,0	0,0	5,117647058823529	64,4375	13,78125	7,3125	
2013-3-13	96	118	47	261	29,142857142857142	2,9411764705882355	0,0	42,76470588235294	63,875	6,375	3,65625	
2013-3-14	60	54	24	138	31,62857142857143	1,588235294117647	0,0	32,088235294117645	83,0625	3,0625	1,9375	
2013-3-15	36	68	23	127	56,74285714285714	6,9411764705882355	0,0	35,794117647058826	13,5625	39,0	14,9375	
2013-3-16	24	19	13	56	73,31428571428572	47,73529411764706	19,5	75,11764705882354	18,90625	19,25	12,3125	
2013-3-17	15	29	12	56	58,0	48,26470588235294	23,5	81,20588235294117	17,625	33,6875	23,5	
2013-3-18	45	26	14	85	43,542857142857144	50,23529411764706	12,294117647058824	94,82352941176471	47,6875	30,96875	21,8125	
2013-3-19	26	40	9	75	45,25714285714286	24,264705882352942	2,8823529411764706	51,73529411764706	11,84375	11,65625	6,5	
2013-3-2	22	17	5	44	25,542857142857144	26,352941176470587	13,029411764705882	41,55882352941177	1,59375	1,0625	0,46875	
2013-3-20	55	79	23	157	50,65714285714286	7,617647058823529	1,2941176470588236	21,235294117647058	4,71875	27,25	19,3125	
2013-3-21	87	51	20	158	26,0	8,352941176470589	0,5294117647058824	42,588235294117645	50,09375	1,9375	0,78125	
2013-3-22	43	63	25	131	80,4	6,147058823529412	0,0	38,0	47,1875	0,0	0,0	
2013-3-23	37	125	35	197	108,31428571428572	0,7058823529411765	0,0	14,382352941176471	42,1875	8,0625	2,1875	
2013-3-24	48	119	41	208	104,51428571428572	0,0	0,0	27,470588235294116	49,0625	6,4375	5,40625	
2013-3-25	43	71	15	129	91,94285714285714	1,8529411764705883	0,0	38,294117647058826	87,40625	0,0	0,0	
2013-3-26	59	62	21	142	74,82857142857142	3,323529411764706	0,0	48,88235294117647	108,15625	0,0	0,0	
2013-3-27	69	31	16	116	59,2	7,470588235294118	0,0	57,294117647058826	115,5625	0,0	0,0	
2013-3-28	39	49	15	103	48,97142857142857	2,5588235294117645	0,0	34,8235294117647	48,5	6,625	1,5	
2013-3-29	47	71	36	154	24,65714285714286	0,9411764705882353	0,0	26,794117647058822	21,5625	11,40625	3,1875	
2013-3-3	25	17	7	49	23,857142857142858	35,970588235294116	7,352941176470588	61,55882352941177	9,125	6,0	1,90625	
2013-3-30	57	43	12	112	35,371428571428574	4,0588235294117645	0,0	44,794117647058826	45,59375	5,46875	1,5625	
2013-3-31	39	26	20	85	34,57142857142857	7,176470588235294	0,0	41,55882352941177	30,28125	2,4375	0,84375	
2013-3-4	215	43	16	274	40,82857142857143	43,088235294117645	0,4411764705882353	105,82352941176471	99,78125	0,0	0,0	
2013-3-5	226	30	19	275	36,0	78,8529411764706	17,294117647058822	156,2058823529412	98,40625	0,0	0,0	
2013-3-6	85	32	32	149	29,17142857142857	94,67647058823529	37,11764705882353	161,2058823529412	36,53125	0,0	0,0	
2013-3-7	23	18	20	61	48,51428571428571	79,97058823529412	54,73529411764706	109,05882352941177	7,8125	14,875	6,8125	
2013-3-8	44	21	18	83	57,542857142857144	77,41176470588235	51,11764705882353	110,0	24,3125	30,96875	20,375	
2013-3-9	45	73	37	155	60,885714285714286	39,029411764705884	17,0	58,205882352941174	0,0	183,34375	144,375	
2013-4-1	94	27	16	137	51,371428571428574	19,08823529411765	0,08823529411764706	71,52941176470588	115,71875	0,0	0,0	
2013-4-10	32	19	7	58	35,114285714285714	59,85294117647059	24,91176470588235	90,44117647058823	15,5	23,125	14,78125	
2013-4-11	52	45	20	117	50,51428571428571	69,73529411764706	37,35294117647059	101,02941176470588	4,0	72,25	49,75	
2013-4-12	64	44	17	125	51,48571428571429	81,6470588235294	44,588235294117645	128,2941176470588	26,3125	29,625	55,53125	
2013-4-13	68	31	17	116	53,885714285714286	94,61764705882354	56,94117647058823	138,3235294117647	45,4375	24,40625	8,125	
2013-4-14	142	65	49	256	56,02857142857143	152,23529411764707	104,58823529411765	205,26470588235293	43,4375	6,28125	2,34375	
2013-4-15	74	42	12	128	37,68571428571428	122,1470588235294	66,88235294117646	165,94117647058823	52,3125	10,34375	8,90625	
2013-4-16	0	0	0	0	59,77142857142857	116,55882352941177	57,05882352941177	165,38235294117646	37,90625	2,28125	1,03125	
2013-4-17	48	10	8	66	46,714285714285715	145,02941176470588	82,29411764705883	199,23529411764707	37,78125	4,09375	3,125	
2013-4-18	77	106	25	208	101,68571428571428	118,94117647058823	78,1470588235294	171,2941176470588	115,8125	0,0	0,0	
2013-4-19	39	37	17	93	53,17142857142857	74,41176470588235	30,852941176470587	111,44117647058823	57,46875	5,4375	12,4375	
2013-4-2	74	38	21	133	62,25714285714286	28,176470588235293	0,20588235294117646	83,61764705882354	120,125	0,0	0,0	
2013-4-20	115	21	19	155	49,74285714285714	61,44117647058823	9,029411764705882	113,47058823529412	127,875	0,0	0,0	
2013-4-21	90	16	15	121	27,685714285714287	73,70588235294117	7,5588235294117645	135,64705882352942	81,09375	0,0	0,0	
2013-4-22	63	24	14	101	46,08571428571429	89,67647058823529	11,0	147,2058823529412	109,375	0,0	0,0	
2013-4-23	28	32	7	67	50,68571428571428	104,26470588235294	65,08823529411765	146,55882352941177	44,53125	15,09375	4,21875	
2013-4-24	185	30	17	232	46,714285714285715	126,52941176470588	60,11764705882353	194,38235294117646	95,40625	0,3125	0,15625	
2013-4-25	96	38	18	152	30,228571428571428	145,88235294117646	86,02941176470588	218,97058823529412	58,0625	0,09375	0,03125	
2013-4-26	55	64	27	146	41,57142857142857	76,0	46,588235294117645	117,08823529411765	4,125	54,625	49,21875	
2013-4-27	45	20	11	76	44,2	62,970588235294116	19,91176470588235	101,67647058823529	80,8125	0,0625	0,03125	
2013-4-28	76	23	7	106	31,457142857142856	68,23529411764706	10,735294117647058	120,82352941176471	102,28125	0,0	0,0	
2013-4-29	53	29	21	103	58,97142857142857	78,97058823529412	38,88235294117647	122,1470588235294	70,4375	17,9375	13,96875	
2013-4-3	35	35	19	89	70,05714285714286	27,38235294117647	0,23529411764705882	73,23529411764706	80,71875	0,0	0,0	
2013-4-30	52	30	11	93	43,285714285714285	83,23529411764706	25,0	132,1764705882353	78,0	0,0	0,0	
2013-4-4	23	33	23	79	67,94285714285714	30,294117647058822	5,294117647058823	59,5	24,59375	0,09375	0,03125	
2013-4-5	20	26	10	56	60,42857142857143	34,76470588235294	10,235294117647058	68,55882352941177	38,59375	0,0	0,0	
2013-4-6	78	23	15	116	44,2	39,470588235294116	2,823529411764706	88,08823529411765	65,59375	0,0	0,0	
2013-4-7	172	30	20	222	24,514285714285716	29,470588235294116	0,08823529411764706	90,88235294117646	95,21875	0,0	0,0	
2013-4-8	48	13	11	72	51,94285714285714	52,294117647058826	4,5	102,91176470588235	69,625	0,0	0,0	
2013-4-9	38	35	10	83	40,05714285714286	60,94117647058823	14,735294117647058	103,38235294117646	30,6875	30,9375	15,0625	
2013-5-1	112	24	9	145	49,02857142857143	97,58823529411765	25,764705882352942	163,5	126,5	0,1875	0,125	
2013-5-10	29	25	26	80	77,37142857142857	119,94117647058823	89,61764705882354	152,2941176470588	29,71875	3,125	1,65625	
2013-5-11	68	45	24	137	62,8	104,55882352941177	77,88235294117646	137,1764705882353	32,25	44,90625	62,84375	
2013-5-12	35	23	14	72	57,42857142857143	95,08823529411765	68,61764705882354	130,3235294117647	53,9375	35,6875	31,09375	
2013-5-13	23	52	19	94	66,31428571428572	106,82352941176471	73,6470588235294	137,64705882352942	23,4375	53,875	42,8125	
2013-5-14	31	51	12	94	50,457142857142856	97,38235294117646	67,97058823529412	128,44117647058823	38,21875	24,125	17,1875	
2013-5-15	29	14	11	54	52,91428571428571	116,20588235294117	63,55882352941177	163,02941176470588	46,0	10,625	4,21875	
2013-5-16	29	79	32	140	39,48571428571429	96,61764705882354	51,088235294117645	128,02941176470588	3,3125	77,78125	101,1875	
2013-5-17	29	47	17	93	36,51428571428571	94,6470588235294	84,91176470588235	109,6470588235294	1,15625	32,28125	52,375	
2013-5-18	42	28	12	82	35,17142857142857	97,11764705882354	61,529411764705884	127,6470588235294	13,09375	9,9375	6,375	
2013-5-19	101	20	22	143	37,114285714285714	112,58823529411765	52,411764705882355	155,41176470588235	61,21875	0,375	0,0625	
2013-5-2	31	12	12	55	52,51428571428571	109,55882352941177	63,8235294117647	161,91176470588235	42,90625	5,46875	3,46875	
2013-5-20	35	42	21	98	20,885714285714286	111,0	94,52941176470588	130,02941176470588	2,15625	58,1875	59,5625	
2013-5-21	48	49	28	125	47,34285714285714	101,61764705882354	83,44117647058823	120,05882352941177	3,90625	79,25	69,59375	
2013-5-22	47	43	15	105	65,68571428571428	88,61764705882354	53,6764705882353	121,1470588235294	37,9375	11,90625	11,21875	
2013-5-23	70	75	40	185	41,48571428571429	66,3529411764706	33,23529411764706	101,82352941176471	53,90625	33,0	41,34375	
2013-5-24	66	66	28	160	39,857142857142854	75,02941176470588	28,441176470588236	121,94117647058823	67,375	19,96875	34,09375	
2013-5-25	58	23	10	91	54,57142857142857	87,0	40,294117647058826	128,08823529411765	42,96875	42,4375	39,03125	
2013-5-26	34	21	19	74	68,14285714285714	93,44117647058823	75,17647058823529	119,1470588235294	23,46875	24,75	17,34375	
2013-5-27	184	29	20	233	37,48571428571429	125,08823529411765	65,67647058823529	181,26470588235293	136,25	0,0	0,0	
2013-5-28	158	29	21	208	45,82857142857143	146,8235294117647	77,1470588235294	209,2941176470588	122,09375	6,84375	9,65625	
2013-5-29	64	47	28	139	40,34285714285714	111,44117647058823	90,0	136,94117647058823	16,0	33,6875	53,53125	
2013-5-3	139	15	8	162	26,428571428571427	116,5	49,5	179,76470588235293	115,5625	0,0	0,0	
2013-5-30	18	9	11	38	28,65714285714286	123,94117647058823	96,02941176470588	161,61764705882354	21,40625	2,5	1,40625	
2013-5-31	68	17	8	93	65,02857142857142	137,94117647058823	98,82352941176471	192,11764705882354	90,65625	0,0	0,0	
2013-5-4	118	18	12	148	55,02857142857143	113,79411764705883	48,88235294117647	168,2058823529412	116,03125	0,09375	0,125	
2013-5-5	159	26	19	204	31,0	122,91176470588235	58,94117647058823	185,8235294117647	124,3125	0,0	0,0	
2013-5-6	173	20	22	215	28,485714285714284	144,1764705882353	57,470588235294116	217,35294117647058	125,15625	0,0	0,0	
2013-5-7	113	51	33	197	39,91428571428571	156,44117647058823	84,6470588235294	232,1764705882353	65,09375	8,21875	13,59375	
2013-5-8	49	52	26	127	42,65714285714286	153,76470588235293	115,29411764705883	213,7941176470588	39,8125	14,4375	48,5625	
2013-5-9	52	31	29	112	54,285714285714285	127,29411764705883	87,76470588235294	161,41176470588235	96,34375	2,375	2,15625	
2013-6-1	0	0	0	0	62,885714285714286	104,3529411764706	77,91176470588235	134,58823529411765	26,3125	0,0	0,0	
2013-6-10	28	19	17	64	30,4	120,38235294117646	75,88235294117646	161,91176470588235	44,34375	0,0	0,0	
2013-6-11	20	14	15	49	21,02857142857143	150,0	67,79411764705883	208,7941176470588	64,71875	0,0	0,0	
2013-6-12	19	25	21	65	51,457142857142856	179,76470588235293	149,85294117647058	213,97058823529412	17,21875	24,9375	25,15625	
2013-6-13	27	35	32	94	78,71428571428571	158,35294117647058	125,41176470588235	191,76470588235293	20,0625	39,65625	25,15625	
2013-6-14	35	12	7	54	45,885714285714286	144,94117647058823	100,0	184,94117647058823	79,3125	0,4375	0,25	
2013-6-15	82	48	33	163	75,94285714285714	147,05882352941177	103,52941176470588	186,35294117647058	89,09375	10,03125	28,4375	
2013-6-16	45	25	22	92	50,285714285714285	143,55882352941177	97,47058823529412	186,5	64,28125	0,0	0,0	
2013-6-17	76	38	37	151	44,02857142857143	172,55882352941177	90,70588235294117	228,41176470588235	81,15625	1,625	1,9375	
2013-6-18	188	106	49	343	25,571428571428573	216,73529411764707	142,47058823529412	289,3235294117647	83,1875	0,0	0,0	
2013-6-19	136	123	80	339	36,8	206,1764705882353	164,1764705882353	258,6470588235294	21,15625	4,5	6,65625	
2013-6-2	0	0	0	0	49,2	114,26470588235294	61,8235294117647	162,91176470588235	144,53125	0,0	0,0	
2013-6-20	65	102	42	209	30,714285714285715	189,35294117647058	155,91176470588235	231,0	23,65625	27,875	84,84375	
2013-6-21	52	86	35	173	61,857142857142854	160,23529411764707	144,88235294117646	184,88235294117646	6,15625	66,125	126,59375	
2013-6-22	57	37	31	125	77,4	157,64705882352942	133,14705882352942	190,58823529411765	27,9375	24,71875	29,9375	
2013-6-23	43	26	29	98	75,65714285714286	145,05882352941177	124,94117647058823	179,05882352941177	33,65625	30,125	48,25	
2013-6-24	20	25	11	56	50,25714285714286	131,61764705882354	112,8529411764706	157,5	13,0625	20,71875	21,21875	
2013-6-25	38	17	12	67	38,91428571428571	129,7058823529412	78,47058823529412	169,23529411764707	77,0625	0,84375	0,375	
2013-6-26	28	24	9	61	37,82857142857143	130,11764705882354	70,17647058823529	172,76470588235293	50,28125	14,125	33,5	
2013-6-27	30	38	21	89	46,94285714285714	125,52941176470588	100,76470588235294	150,97058823529412	28,78125	22,0625	22,8125	
2013-6-28	30	36	23	89	50,4	135,38235294117646	111,55882352941177	160,85294117647058	3,625	84,5625	104,84375	
2013-6-29	47	18	22	87	51,714285714285715	138,2941176470588	86,38235294117646	170,2941176470588	65,96875	16,53125	19,46875	
2013-6-3	8	13	6	27	54,34285714285714	107,91176470588235	63,3235294117647	148,97058823529412	72,9375	0,0	0,0	
2013-6-30	81	18	14	113	46,42857142857143	158,94117647058823	84,29411764705883	210,47058823529412	63,40625	0,0	0,0	
2013-6-4	130	26	19	175	45,457142857142856	135,58823529411765	74,70588235294117	194,73529411764707	117,0625	0,0	0,0	
2013-6-5	190	36	18	244	39,285714285714285	150,26470588235293	78,17647058823529	207,76470588235293	142,96875	0,0	0,0	
2013-6-6	156	24	16	196	44,4	166,05882352941177	99,82352941176471	231,14705882352942	135,59375	0,0	0,0	
2013-6-7	164	26	13	203	50,08571428571429	165,55882352941177	104,52941176470588	229,11764705882354	146,59375	0,0	0,0	
2013-6-8	132	23	15	170	60,31428571428572	141,55882352941177	101,29411764705883	192,35294117647058	120,875	0,0	0,0	
2013-6-9	78	27	27	132	56,142857142857146	125,6470588235294	96,44117647058823	165,61764705882354	56,90625	0,09375	0,53125	
2013-7-1	28	10	7	45	45,05714285714286	153,88235294117646	107,08823529411765	190,73529411764707	47,03125	0,0625	0,03125	
2013-7-10	34	27	21	82	50,82857142857143	158,38235294117646	122,3529411764706	194,61764705882354	53,53125	0,375	0,09375	
2013-7-11	18	14	10	42	39,142857142857146	148,55882352941177	114,88235294117646	185,02941176470588	38,9375	0,0625	0,03125	
2013-7-12	20	16	8	44	28,428571428571427	146,73529411764707	97,41176470588235	183,5	25,0	2,15625	1,1875	
2013-7-13	36	13	8	57	26,857142857142858	161,91176470588235	114,02941176470588	205,61764705882354	77,21875	0,09375	0,0625	
2013-7-14	37	18	5	60	22,62857142857143	163,85294117647058	104,47058823529412	212,64705882352942	67,40625	0,0	0,0	
2013-7-15	78	17	15	110	22,228571428571428	182,64705882352942	113,67647058823529	245,35294117647058	129,375	0,0	0,0	
2013-7-16	36	17	16	69	19,285714285714285	188,2058823529412	109,44117647058823	249,35294117647058	87,4375	0,0	0,0	
2013-7-17	46	16	9	71	27,571428571428573	197,6764705882353	134,76470588235293	250,6764705882353	77,96875	0,0	0,0	
2013-7-18	78	31	11	120	39,714285714285715	203,97058823529412	145,6764705882353	259,61764705882354	137,0	0,0	0,0	
2013-7-19	73	23	18	114	46,77142857142857	200,05882352941177	138,61764705882354	256,05882352941177	135,96875	0,0	0,0	
2013-7-2	51	14	12	77	25,771428571428572	163,52941176470588	88,70588235294117	209,55882352941177	66,1875	10,28125	21,4375	
2013-7-20	40	24	20	84	38,4	182,7058823529412	145,11764705882354	224,55882352941177	49,78125	0,0	0,0	
2013-7-21	118	38	21	177	32,857142857142854	222,05882352941177	139,38235294117646	295,9117647058824	140,40625	0,0	0,0	
2013-7-22	125	81	31	237	24,542857142857144	240,55882352941177	158,73529411764707	314,94117647058823	127,6875	0,0	0,0	
2013-7-23	116	77	44	237	27,857142857142858	235,26470588235293	163,8235294117647	308,1764705882353	107,40625	3,4375	7,9375	
2013-7-24	47	42	25	114	30,0	203,8235294117647	149,52941176470588	256,88235294117646	44,0	3,96875	9,5625	
2013-7-25	58	27	19	104	23,97142857142857	210,91176470588235	136,35294117647058	280,8235294117647	86,875	3,4375	19,03125	
2013-7-26	55	47	40	142	22,37142857142857	209,05882352941177	160,02941176470588	258,8529411764706	34,5625	10,40625	44,53125	
2013-7-27	109	107	86	302	27,685714285714287	209,73529411764707	171,85294117647058	251,97058823529412	49,90625	29,5625	191,21875	
2013-7-28	74	63	28	165	47,628571428571426	197,58823529411765	157,64705882352942	232,11764705882354	64,875	6,0625	29,78125	
2013-7-29	32	22	12	66	51,371428571428574	198,6764705882353	159,7941176470588	237,58823529411765	96,34375	1,59375	3,3125	
2013-7-3	30	25	8	63	36,542857142857144	163,7941176470588	146,26470588235293	186,3235294117647	4,28125	37,5	44,09375	
2013-7-30	35	32	11	78	60,34285714285714	178,14705882352942	151,58823529411765	209,1764705882353	31,0	41,40625	60,09375	
2013-7-31	33	29	14	76	47,6	191,5	163,73529411764707	225,88235294117646	48,53125	7,96875	7,625	
2013-7-4	52	15	7	74	44,91428571428571	174,85294117647058	149,2058823529412	217,41176470588235	45,125	0,6875	0,21875	
2013-7-5	56	14	9	79	30,6	172,23529411764707	126,20588235294117	215,5	75,34375	0,21875	0,09375	
2013-7-6	118	13	16	147	31,0	186,05882352941177	114,70588235294117	243,41176470588235	137,53125	0,0	0,0	
2013-7-7	134	29	12	175	38,05714285714286	190,1764705882353	124,73529411764706	245,61764705882354	147,75	0,0	0,0	
2013-7-8	109	26	15	150	47,97142857142857	186,61764705882354	131,44117647058823	241,35294117647058	143,03125	0,0	0,0	
2013-7-9	88	22	14	124	41,91428571428571	176,6764705882353	121,26470588235294	228,11764705882354	140,65625	0,0	0,0	
2013-8-1	107	42	25	174	33,34285714285714	242,7941176470588	176,2941176470588	303,6764705882353	127,21875	0,71875	0,3125	
2013-8-10	21	17	9	47	45,05714285714286	165,8235294117647	129,3235294117647	203,2941176470588	51,84375	0,8125	3,375	
2013-8-11	30	22	10	62	45,08571428571429	169,02941176470588	121,1470588235294	216,7058823529412	66,8125	6,96875	21,5	
2013-8-12	18	23	14	55	41,68571428571428	162,64705882352942	121,3529411764706	203,14705882352942	48,90625	2,21875	7,40625	
2013-8-13	32	32	11	75	48,97142857142857	150,6764705882353	107,55882352941177	193,44117647058823	97,25	10,125	20,28125	
2013-8-14	23	18	9	50	25,34285714285714	152,76470588235293	94,29411764705883	206,47058823529412	93,75	1,53125	2,6875	
2013-8-15	26	20	11	57	38,4	165,8235294117647	99,3529411764706	215,14705882352942	39,96875	14,09375	12,28125	
2013-8-16	32	14	10	56	39,25714285714286	195,14705882352942	147,26470588235293	261,20588235294116	65,5	16,6875	12,0	
2013-8-17	21	15	7	43	47,34285714285714	194,26470588235293	161,76470588235293	235,8235294117647	49,0625	11,15625	9,65625	
2013-8-18	38	23	14	75	51,371428571428574	183,2941176470588	143,38235294117646	222,88235294117646	61,21875	36,71875	47,28125	
2013-8-19	43	36	26	105	37,114285714285714	161,73529411764707	114,23529411764706	204,58823529411765	56,96875	15,28125	51,375	
2013-8-2	131	71	53	255	36,97142857142857	254,47058823529412	186,11764705882354	331,88235294117646	126,40625	0,0	0,0	
2013-8-20	11	14	8	33	20,4	159,44117647058823	97,79411764705883	213,08823529411765	51,65625	0,0	0,0	
2013-8-21	21	12	8	41	20,514285714285716	171,52941176470588	104,55882352941177	234,8235294117647	87,03125	0,0	0,0	
2013-8-22	16	15	12	43	17,17142857142857	175,2058823529412	112,08823529411765	224,91176470588235	34,15625	5,96875	4,15625	
2013-8-23	34	7	10	51	29,114285714285714	196,5	133,7058823529412	252,61764705882354	103,46875	1,1875	0,28125	
2013-8-24	22	29	12	63	39,17142857142857	186,94117647058823	150,8235294117647	231,02941176470588	30,0	14,9375	18,53125	
2013-8-25	19	9	12	40	33,57142857142857	180,7058823529412	141,26470588235293	226,44117647058823	45,125	3,6875	5,4375	
2013-8-26	25	8	6	39	45,74285714285714	179,88235294117646	128,2941176470588	234,0	104,21875	0,0	0,0	
2013-8-27	20	14	6	40	32,457142857142856	178,58823529411765	115,5	237,73529411764707	104,6875	0,0	0,0	
2013-8-28	16	14	9	39	28,0	174,64705882352942	111,29411764705883	234,61764705882354	83,5	0,15625	0,71875	
2013-8-29	17	11	9	37	23,742857142857144	166,08823529411765	96,38235294117646	234,52941176470588	80,8125	0,0	0,0	
2013-8-3	44	24	21	89	51,371428571428574	199,7058823529412	140,94117647058823	236,44117647058823	108,84375	2,25	1,90625	
2013-8-30	19	12	6	37	39,371428571428574	176,58823529411765	116,70588235294117	231,47058823529412	67,15625	0,0	0,0	
2013-8-31	25	18	9	52	49,22857142857143	165,58823529411765	103,47058823529412	210,08823529411765	64,0	1,8125	2,5	
2013-8-4	36	8	14	58	26,485714285714284	195,73529411764707	127,79411764705883	253,6764705882353	121,4375	0,0	0,0	
2013-8-5	74	48	29	151	31,8	219,73529411764707	138,23529411764707	289,1764705882353	95,25	5,40625	34,75	
2013-8-6	36	41	23	100	40,68571428571428	183,0	140,7941176470588	218,55882352941177	66,65625	0,6875	0,53125	
2013-8-7	36	58	24	118	47,68571428571428	154,73529411764707	129,8235294117647	180,41176470588235	11,5	71,28125	82,25	
2013-8-8	33	11	11	55	34,17142857142857	167,14705882352942	115,08823529411765	211,7058823529412	100,5625	6,34375	1,9375	
2013-8-9	22	7	13	42	33,142857142857146	174,44117647058823	108,79411764705883	227,7058823529412	54,5	2,78125	6,5	
2013-9-1	22	24	9	55	51,31428571428572	147,7941176470588	92,5	180,05882352941177	19,125	0,34375	0,625	
2013-9-10	76	144	32	252	55,51428571428571	129,6764705882353	101,02941176470588	164,8235294117647	18,3125	101,375	271,28125	
2013-9-11	48	52	18	118	49,97142857142857	147,08823529411765	114,20588235294117	185,14705882352942	52,25	24,6875	56,65625	
2013-9-12	32	30	12	74	29,228571428571428	147,35294117647058	107,82352941176471	188,05882352941177	46,3125	11,53125	27,59375	
2013-9-13	23	29	12	64	37,42857142857143	146,88235294117646	101,88235294117646	181,58823529411765	30,1875	24,4375	16,84375	
2013-9-14	55	60	21	136	54,6	148,91176470588235	111,73529411764706	177,8235294117647	9,1875	90,125	102,3125	
2013-9-15	41	29	12	82	58,371428571428574	132,05882352941177	93,23529411764706	168,2058823529412	44,34375	49,84375	70,0	
2013-9-16	33	78	24	135	64,94285714285714	115,6470588235294	77,23529411764706	151,52941176470588	78,8125	31,1875	48,34375	
2013-9-17	19	66	20	105	59,4	108,26470588235294	82,05882352941177	145,1764705882353	39,75	65,09375	62,84375	
2013-9-18	14	32	14	60	35,4	117,0	85,26470588235294	155,26470588235293	38,5625	28,375	30,78125	
2013-9-19	25	28	9	62	52,542857142857144	124,52941176470588	86,91176470588235	154,26470588235293	27,5	36,3125	35,9375	
2013-9-2	15	15	9	39	58,77142857142857	168,14705882352942	137,61764705882354	200,05882352941177	32,8125	0,0	0,0	
2013-9-20	21	21	5	47	42,25714285714286	137,2058823529412	95,47058823529412	167,3235294117647	14,9375	5,21875	5,71875	
2013-9-21	17	19	2	38	30,057142857142857	136,05882352941177	86,58823529411765	174,91176470588235	27,5625	0,8125	0,21875	
2013-9-22	18	13	7	38	36,34285714285714	161,1764705882353	134,08823529411765	199,47058823529412	25,96875	0,4375	0,09375	
2013-9-23	12	9	5	26	23,942857142857143	156,64705882352942	108,3529411764706	195,6764705882353	23,875	0,0	0,0	
2013-9-24	11	13	10	34	17,114285714285714	146,97058823529412	106,11764705882354	185,76470588235293	25,9375	0,71875	0,125	
2013-9-25	5	9	5	19	18,914285714285715	146,7941176470588	107,23529411764706	185,2941176470588	13,6875	0,84375	0,5	
2013-9-26	14	10	8	32	39,6	126,26470588235294	71,55882352941177	162,73529411764707	49,6875	0,09375	0,0625	
2013-9-27	39	37	7	83	31,2	104,91176470588235	48,76470588235294	163,3235294117647	97,0625	0,0	0,0	
2013-9-28	49	21	5	75	50,628571428571426	117,79411764705883	63,0	172,55882352941177	99,53125	0,0	0,0	
2013-9-29	48	15	6	69	69,8	122,5	82,79411764705883	171,7941176470588	102,65625	0,0	0,0	
2013-9-3	22	8	12	42	24,542857142857144	182,94117647058823	131,0	227,3235294117647	48,90625	0,0	0,0	
2013-9-30	22	41	8	71	57,74285714285714	108,02941176470588	67,08823529411765	159,35294117647058	101,65625	0,0	0,0	
2013-9-4	32	17	11	60	26,34285714285714	194,41176470588235	129,1764705882353	255,85294117647058	90,53125	0,0	0,0	
2013-9-5	86	44	18	148	31,885714285714286	225,64705882352942	149,91176470588235	306,1764705882353	120,25	0,0	0,0	
2013-9-6	76	64	31	171	28,742857142857144	197,85294117647058	141,0	265,94117647058823	74,96875	7,875	18,65625	
2013-9-7	31	20	16	67	20,2	167,2058823529412	129,5	200,97058823529412	15,0	12,9375	22,9375	
2013-9-8	76	51	33	160	25,742857142857144	144,94117647058823	113,94117647058823	187,5	39,875	66,46875	179,21875	
2013-9-9	52	72	16	140	33,48571428571429	130,85294117647058	102,55882352941177	177,38235294117646	40,875	57,53125	133,375	
